[0125/203016.203:ERROR:crash_report_database_win.cc(455)] unexpected header
[0125/205514.019:ERROR:crash_report_database_win.cc(455)] unexpected header
[0125/212625.507:ERROR:crash_report_database_win.cc(455)] unexpected header
[0125/220036.545:ERROR:crash_report_database_win.cc(455)] unexpected header
[0125/221318.738:ERROR:crash_report_database_win.cc(455)] unexpected header
[0125/221614.359:ERROR:crash_report_database_win.cc(455)] unexpected header
[0125/222315.007:ERROR:crash_report_database_win.cc(455)] unexpected header
[0125/230236.040:ERROR:crash_report_database_win.cc(455)] unexpected header
[0126/083346.498:ERROR:crash_report_database_win.cc(455)] unexpected header
[0126/095112.594:ERROR:crash_report_database_win.cc(455)] unexpected header
[0126/161845.216:ERROR:crash_report_database_win.cc(455)] unexpected header
[0126/164400.682:ERROR:crash_report_database_win.cc(455)] unexpected header
[0126/194257.478:ERROR:crash_report_database_win.cc(455)] unexpected header
[0126/200914.361:ERROR:crash_report_database_win.cc(455)] unexpected header
[0126/201107.306:ERROR:crash_report_database_win.cc(455)] unexpected header
[0126/213030.345:ERROR:crash_report_database_win.cc(455)] unexpected header
